<svg width="60" height="40" viewBox="0 0 60 40" fill="none" xmlns="http://www.w3.org/2000/svg">
<rect width="59.5349" height="40" fill="#32323E"/>
<path d="M56.8909 0H2.64398C1.18375 0 0 1.28136 0 2.862V37.138C0 38.7186 1.18375 40 2.64398 40H56.8909C58.3511 40 59.5349 38.7186 59.5349 37.138V2.862C59.5349 1.28136 58.3511 0 56.8909 0Z" fill="#FEF4F1"/>
<path opacity="0.3" d="M59.5349 7H0V14.3332H59.5349V7Z" fill="#FF761A"/>
<path d="M53.8904 19.7783H5.64648V23.3339H53.8904V19.7783Z" fill="#FCDACF"/>
<path opacity="0.3" d="M9.57792 36.4137C12.1467 36.4137 14.2291 34.3313 14.2291 31.7625C14.2291 29.1937 12.1467 27.1113 9.57792 27.1113C7.00915 27.1113 4.92676 29.1937 4.92676 31.7625C4.92676 34.3313 7.00915 36.4137 9.57792 36.4137Z" fill="#FF761A"/>
</svg>
