<svg width="28" height="28" viewBox="0 0 28 28" fill="none" xmlns="http://www.w3.org/2000/svg">
<path d="M18.4326 2.57889C17.9543 2.10056 17.126 2.42723 17.126 3.09223V7.16389C17.126 8.86723 18.5726 10.2789 20.3343 10.2789C21.4426 10.2906 22.9826 10.2906 24.301 10.2906C24.966 10.2906 25.316 9.50889 24.8493 9.04223C23.1693 7.35056 20.1593 4.30556 18.4326 2.57889Z" fill="#9BACB6"/>
<path d="M23.917 11.8909H20.5453C17.7803 11.8909 15.5287 9.63927 15.5287 6.87427V3.5026C15.5287 2.86094 15.0037 2.33594 14.362 2.33594H9.41532C5.82199 2.33594 2.91699 4.66927 2.91699 8.83427V19.1709C2.91699 23.3359 5.82199 25.6693 9.41532 25.6693H18.5853C22.1787 25.6693 25.0837 23.3359 25.0837 19.1709V13.0576C25.0837 12.4159 24.5587 11.8909 23.917 11.8909ZM13.417 20.7109H8.75033C8.27199 20.7109 7.87533 20.3143 7.87533 19.8359C7.87533 19.3576 8.27199 18.9609 8.75033 18.9609H13.417C13.8953 18.9609 14.292 19.3576 14.292 19.8359C14.292 20.3143 13.8953 20.7109 13.417 20.7109ZM15.7503 16.0443H8.75033C8.27199 16.0443 7.87533 15.6476 7.87533 15.1693C7.87533 14.6909 8.27199 14.2943 8.75033 14.2943H15.7503C16.2287 14.2943 16.6253 14.6909 16.6253 15.1693C16.6253 15.6476 16.2287 16.0443 15.7503 16.0443Z" fill="#9BACB6"/>
</svg>
