<svg width="107" height="71" viewBox="0 0 107 71" fill="none" xmlns="http://www.w3.org/2000/svg">
<path d="M80.5959 70.477C76.7872 70.477 74.4408 68.7186 70.6069 66.6477C66.773 64.5767 55.6846 56.2387 55.6846 45.8594C55.6846 38.8185 53.8696 33.1236 50.7785 28.5852C47.7106 24.0816 43.5543 20.9614 39.2305 18.7588C37.147 17.6977 34.9787 16.8298 32.8197 16.1126C31.561 15.6948 30.8306 14.3433 31.3767 13.1351C34.8379 5.47245 42.5464 0.141113 51.501 0.141113C63.6901 0.141113 73.5719 10.0224 73.5719 22.212C73.5719 24.8199 73.1197 27.3224 72.2891 29.6447C75.8072 27.2738 80.0461 25.8903 84.6074 25.8903C96.7966 25.8903 106.678 35.7715 106.678 47.9613C106.678 62.6357 93.7827 70.477 80.5959 70.477Z" fill="#F2C33E"/>
<path d="M0 46.1215C0 57.7554 7.67013 67.449 17.8312 69.5909C19.3996 70.1639 21.0928 70.4764 22.8592 70.4764H57.1507C58.3007 70.4764 58.8015 68.9384 57.9235 68.1954C51.9305 63.1245 47.4767 55.9782 47.4767 45.8588C47.4767 40.2985 46.0686 36.2488 43.9943 33.2043C41.8964 30.1248 38.9458 27.8232 35.5039 26.0695C32.03 24.3002 28.2586 23.173 24.6571 22.374C23.8088 22.267 22.9456 22.2114 22.0709 22.2114C9.88126 22.2114 0 32.9164 0 46.1215Z" fill="#F2C33E"/>
</svg>
