<svg width="399" height="71" viewBox="0 0 399 71" fill="none" xmlns="http://www.w3.org/2000/svg">
<path d="M80.5959 70.477C76.7872 70.477 74.4408 68.7186 70.6069 66.6477C66.773 64.5767 55.6846 56.2387 55.6846 45.8594C55.6846 38.8185 53.8696 33.1236 50.7785 28.5852C47.7106 24.0816 43.5543 20.9614 39.2305 18.7588C37.147 17.6977 34.9787 16.8298 32.8197 16.1126C31.561 15.6948 30.8306 14.3433 31.3767 13.1351C34.8379 5.47245 42.5464 0.141113 51.501 0.141113C63.6901 0.141113 73.5719 10.0224 73.5719 22.212C73.5719 24.8199 73.1197 27.3224 72.2891 29.6447C75.8072 27.2738 80.0461 25.8903 84.6074 25.8903C96.7966 25.8903 106.678 35.7715 106.678 47.9613C106.678 62.6357 93.7827 70.477 80.5959 70.477Z" fill="#F2C33E"/>
<path d="M0 46.1215C0 57.7554 7.67013 67.449 17.8312 69.5909C19.3996 70.1639 21.0928 70.4764 22.8592 70.4764H57.1507C58.3007 70.4764 58.8015 68.9384 57.9235 68.1954C51.9305 63.1245 47.4767 55.9782 47.4767 45.8588C47.4767 40.2985 46.0686 36.2488 43.9943 33.2043C41.8964 30.1248 38.9458 27.8232 35.5039 26.0695C32.03 24.3002 28.2586 23.173 24.6571 22.374C23.8088 22.267 22.9456 22.2114 22.0709 22.2114C9.88126 22.2114 0 32.9164 0 46.1215Z" fill="#F2C33E"/>
<path d="M206.597 33.9346C205.966 33.3249 205.279 32.7605 204.536 32.2472C200.572 29.5053 196.529 29.1447 195.754 29.1015C195.663 29.0961 195.541 29.0913 195.398 29.0862C193.325 29.017 186.079 28.985 181.563 29.0115C180.091 29.0217 178.907 29.0384 178.285 29.0541C177.86 28.9266 174.364 27.8796 174.566 23.4066C174.795 18.2956 179.109 18.0881 179.268 18.0826C179.938 18.0565 183.742 18.0509 188.172 18.0621L184.251 24.4266H198.176L206.597 10.4789V33.9346ZM154.616 25.3464C154.188 28.7366 151.45 31.4733 148.06 31.9005C143.084 32.5275 138.901 28.3434 139.528 23.3682C139.955 19.9776 142.692 17.2395 146.083 16.8128C151.059 16.1855 155.243 20.3703 154.616 25.3464ZM136.623 24.7084C136.48 25.6457 135.714 26.4104 134.778 26.5539C133.275 26.7835 131.999 25.5071 132.23 24.005C132.374 23.0682 133.139 22.3029 134.076 22.1595C135.578 21.9299 136.854 23.2065 136.623 24.7084ZM249.418 6.82124L241.366 14.8558C240.922 15.2575 240.669 15.8264 240.669 16.4232V38.0078L210.216 6.84736C209.892 6.53519 209.516 6.3536 209.131 6.28157L209.137 6.27283L209.158 6.2404H186.35C182.737 6.23554 179.565 6.24623 178.795 6.27283C174.498 6.44652 168.237 8.91688 164.934 14.7742C160.84 8.70589 153.113 6.55936 149.43 6.34704C148.168 6.27489 133.622 6.26129 127.861 6.26384C126.774 6.26469 125.896 7.14604 125.896 8.23315V54.5625L134.925 63.6322C136.165 64.8772 138.29 63.9997 138.29 62.2428V42.6053C143.152 42.5858 149.121 42.5418 150.467 42.4478C153.987 42.2013 161.719 39.7759 165.477 32.8796C166.289 34.1736 167.244 35.3635 168.297 36.4226C170.193 38.3193 172.531 39.7116 174.885 40.4022C175.565 40.6092 176.239 40.753 176.909 40.8321H187.97V40.8593H188.385C191.546 40.87 194.388 40.8964 195.047 40.9335C195.456 40.9758 196.795 41.268 197.895 42.0707C198.74 42.6814 199.701 43.7176 199.685 46.3207C199.653 51.4904 196.434 52.3826 195.833 52.5047C194.861 52.5474 186.424 52.5582 181.541 52.5419L185.781 45.2263H172.058L161.168 64.2672L185.229 64.3257L185.245 64.3308C188.618 64.3308 195.944 64.3842 196.747 64.3308C199.005 64.1716 202.506 63.061 205.555 60.4102C206.634 59.4759 207.797 58.2225 208.808 56.5891L215.013 63.6867C216.353 65.0329 218.661 64.0901 218.661 62.1962L218.752 32.6382L248.888 63.5275C250.248 64.8013 252.737 64.8288 252.737 62.9709V8.38887C252.737 6.54807 250.788 5.58266 249.418 6.82124Z" fill="#114A97"/>
<path d="M195.401 29.0996L188.389 40.8731H187.974V40.8459H176.913C176.244 40.7668 175.569 40.623 174.889 40.4161L181.567 29.0248C186.083 28.9984 193.329 29.0308 195.401 29.0996Z" fill="#F2C33E"/>
<path d="M161.163 64.2639L172.054 45.2231L185.777 45.2231L174.742 64.2639L161.163 64.2639Z" fill="#F2C33E"/>
<path d="M184.24 24.4467L195.443 6.26076L209.147 6.26075L198.165 24.4467L184.24 24.4467Z" fill="#F2C33E"/>
<path d="M281.596 63.5866C278.407 63.5866 275.524 62.8812 272.948 61.4704C270.402 60.0597 268.394 58.1122 266.921 55.6281C265.48 53.1133 264.759 50.3071 264.759 47.2096C264.759 44.1121 265.48 41.3213 266.921 38.8371C268.394 36.3223 270.418 34.3595 272.994 32.9488C275.57 31.538 278.453 30.8327 281.642 30.8327C284.034 30.8327 286.243 31.2314 288.267 32.0287C290.291 32.8261 292.008 33.9915 293.419 35.5249L291.257 37.6871C288.742 35.1416 285.568 33.8688 281.734 33.8688C279.189 33.8688 276.873 34.4515 274.788 35.6169C272.702 36.7823 271.062 38.3771 269.866 40.4012C268.7 42.4253 268.118 44.6948 268.118 47.2096C268.118 49.7244 268.7 51.9939 269.866 54.018C271.062 56.0421 272.702 57.6369 274.788 58.8023C276.873 59.9677 279.189 60.5504 281.734 60.5504C285.599 60.5504 288.773 59.2623 291.257 56.6862L293.419 58.8483C292.008 60.3817 290.275 61.5624 288.221 62.3905C286.197 63.1879 283.988 63.5866 281.596 63.5866ZM299.986 29.1766H303.252V63.3105H299.986V29.1766ZM322.231 63.5406C319.9 63.5406 317.799 63.0192 315.928 61.9765C314.058 60.9031 312.585 59.431 311.512 57.5602C310.439 55.6894 309.902 53.5733 309.902 51.2118C309.902 48.8504 310.439 46.7343 311.512 44.8635C312.585 42.9927 314.058 41.536 315.928 40.4932C317.799 39.4505 319.9 38.9291 322.231 38.9291C324.561 38.9291 326.662 39.4505 328.533 40.4932C330.404 41.536 331.861 42.9927 332.903 44.8635C333.977 46.7343 334.513 48.8504 334.513 51.2118C334.513 53.5733 333.977 55.6894 332.903 57.5602C331.861 59.431 330.404 60.9031 328.533 61.9765C326.662 63.0192 324.561 63.5406 322.231 63.5406ZM322.231 60.6424C323.948 60.6424 325.482 60.259 326.831 59.4923C328.211 58.6949 329.284 57.5755 330.051 56.1341C330.818 54.6927 331.201 53.052 331.201 51.2118C331.201 49.3717 330.818 47.731 330.051 46.2896C329.284 44.8481 328.211 43.7441 326.831 42.9774C325.482 42.18 323.948 41.7813 322.231 41.7813C320.513 41.7813 318.964 42.18 317.584 42.9774C316.235 43.7441 315.162 44.8481 314.364 46.2896C313.597 47.731 313.214 49.3717 313.214 51.2118C313.214 53.052 313.597 54.6927 314.364 56.1341C315.162 57.5755 316.235 58.6949 317.584 59.4923C318.964 60.259 320.513 60.6424 322.231 60.6424ZM362.987 39.1131V63.3105H359.859V58.8943C359 60.3664 357.819 61.5164 356.316 62.3445C354.814 63.1419 353.096 63.5406 351.164 63.5406C348.005 63.5406 345.506 62.6665 343.666 60.9184C341.856 59.1396 340.952 56.5482 340.952 53.144V39.1131H344.218V52.8219C344.218 55.3674 344.846 57.2995 346.104 58.6183C347.361 59.937 349.155 60.5964 351.486 60.5964C354.032 60.5964 356.04 59.8297 357.513 58.2963C358.985 56.7322 359.721 54.57 359.721 51.8099V39.1131H362.987ZM394.216 29.1766V63.3105H391.088V58.5263C390.106 60.1517 388.803 61.3938 387.177 62.2525C385.583 63.1112 383.773 63.5406 381.749 63.5406C379.48 63.5406 377.425 63.0192 375.585 61.9765C373.745 60.9337 372.303 59.477 371.261 57.6062C370.218 55.7354 369.696 53.604 369.696 51.2118C369.696 48.8197 370.218 46.6883 371.261 44.8175C372.303 42.9467 373.745 41.5053 375.585 40.4932C377.425 39.4505 379.48 38.9291 381.749 38.9291C383.712 38.9291 385.475 39.3432 387.039 40.1712C388.634 40.9686 389.938 42.1493 390.95 43.7134V29.1766H394.216ZM382.025 60.6424C383.712 60.6424 385.23 60.259 386.579 59.4923C387.959 58.6949 389.033 57.5755 389.8 56.1341C390.597 54.6927 390.996 53.052 390.996 51.2118C390.996 49.3717 390.597 47.731 389.8 46.2896C389.033 44.8481 387.959 43.7441 386.579 42.9774C385.23 42.18 383.712 41.7813 382.025 41.7813C380.308 41.7813 378.759 42.18 377.379 42.9774C376.029 43.7441 374.956 44.8481 374.159 46.2896C373.392 47.731 373.009 49.3717 373.009 51.2118C373.009 53.052 373.392 54.6927 374.159 56.1341C374.956 57.5755 376.029 58.6949 377.379 59.4923C378.759 60.259 380.308 60.6424 382.025 60.6424Z" fill="#114A97"/>
</svg>
