<svg width="268" height="50" viewBox="0 0 268 50" fill="none" xmlns="http://www.w3.org/2000/svg">
<path d="M53.9981 48.125C51.4463 48.125 49.8742 46.9469 47.3055 45.5594C44.7368 44.1719 37.3075 38.5854 37.3075 31.6313C37.3075 26.9138 36.0915 23.0983 34.0205 20.0575C31.965 17.0401 29.1803 14.9496 26.2834 13.4738C24.8874 12.7629 23.4346 12.1814 21.9881 11.7009C21.1448 11.421 20.6554 10.5155 21.0213 9.70596C23.3403 4.572 28.505 1 34.5045 1C42.6712 1 49.2921 7.62044 49.2921 15.7875C49.2921 17.5348 48.9891 19.2115 48.4326 20.7674C50.7897 19.1789 53.6298 18.2519 56.6858 18.2519C64.8526 18.2519 71.4729 24.8724 71.4729 33.0395C71.4729 42.8714 62.8333 48.125 53.9981 48.125Z" fill="#F2C33E"/>
<path d="M0 31.8088C0 39.6035 5.13899 46.0982 11.9469 47.5333C12.9977 47.9172 14.1322 48.1266 15.3156 48.1266H38.291C39.0615 48.1266 39.397 47.0961 38.8087 46.5983C34.7934 43.2008 31.8094 38.4128 31.8094 31.6328C31.8094 27.9074 30.866 25.1941 29.4762 23.1543C28.0706 21.091 26.0937 19.5489 23.7876 18.3739C21.4601 17.1885 18.9333 16.4333 16.5202 15.898C15.9519 15.8263 15.3735 15.7891 14.7875 15.7891C6.62044 15.7891 0 22.9614 0 31.8088Z" fill="#F2C33E"/>
<g clip-path="url(#clip0_709_11045)">
<path d="M138.421 23.6418C137.998 23.2333 137.538 22.8552 137.04 22.5112C134.384 20.6742 131.675 20.4326 131.156 20.4036C131.095 20.4 131.013 20.3968 130.917 20.3934C129.529 20.3471 124.674 20.3256 121.648 20.3433C120.662 20.3501 119.868 20.3614 119.452 20.3719C119.167 20.2864 116.825 19.585 116.96 16.588C117.113 13.1637 120.004 13.0247 120.11 13.021C120.559 13.0035 123.108 12.9998 126.076 13.0072L123.449 17.2715H132.779L138.421 7.92651V23.6418ZM103.593 17.8877C103.307 20.1591 101.472 21.9928 99.201 22.279C95.8672 22.6991 93.0643 19.8957 93.4844 16.5623C93.7707 14.2906 95.6048 12.4561 97.8764 12.1702C101.21 11.7499 104.014 14.5537 103.593 17.8877ZM91.5386 17.4603C91.4426 18.0882 90.9296 18.6006 90.3021 18.6967C89.295 18.8506 88.4405 17.9954 88.595 16.989C88.6913 16.3613 89.2043 15.8486 89.8318 15.7525C90.8383 15.5987 91.6934 16.454 91.5386 17.4603ZM167.111 5.47587L161.716 10.859C161.419 11.1281 161.249 11.5093 161.249 11.9092V26.3708L140.845 5.49336C140.629 5.28421 140.377 5.16255 140.119 5.11429L140.122 5.10843L140.137 5.0867H124.855C122.435 5.08344 120.31 5.09061 119.794 5.10843C116.915 5.2248 112.72 6.87994 110.507 10.8043C107.764 6.73858 102.586 5.30041 100.119 5.15815C99.2736 5.10981 89.5274 5.1007 85.6678 5.10241C84.9395 5.10298 84.3516 5.69348 84.3516 6.42185V37.4625L90.4008 43.5392C91.2313 44.3733 92.6553 43.7854 92.6553 42.6083V29.4512C95.913 29.4381 99.9119 29.4086 100.814 29.3457C103.172 29.1805 108.353 27.5555 110.871 22.935C111.414 23.8019 112.055 24.5992 112.76 25.3088C114.03 26.5796 115.597 27.5124 117.174 27.9751C117.629 28.1138 118.081 28.2101 118.53 28.2631H125.941V28.2814H126.219C128.337 28.2885 130.241 28.3063 130.683 28.3311C130.957 28.3594 131.854 28.5552 132.591 29.093C133.156 29.5022 133.801 30.1964 133.79 31.9405C133.768 35.4042 131.611 36.0019 131.209 36.0838C130.558 36.1124 124.905 36.1196 121.634 36.1087L124.474 31.2073H115.28L107.983 43.9646L124.104 44.0039L124.115 44.0073C126.375 44.0073 131.284 44.043 131.822 44.0073C133.334 43.9006 135.68 43.1565 137.723 41.3805C138.446 40.7545 139.225 39.9147 139.902 38.8204L144.06 43.5757C144.957 44.4777 146.504 43.846 146.504 42.5771L146.565 22.7732L166.756 43.469C167.667 44.3225 169.335 44.341 169.335 43.0961V6.52618C169.335 5.29284 168.029 4.64602 167.111 5.47587Z" fill="#114A97"/>
<path d="M130.923 20.4L126.225 28.2882H125.947V28.27H118.536C118.087 28.217 117.635 28.1207 117.18 27.9821L121.654 20.3499C124.68 20.3322 129.535 20.3539 130.923 20.4Z" fill="#F2C33E"/>
<path d="M107.979 43.9593L115.276 31.2019L124.47 31.2019L117.077 43.9593L107.979 43.9593Z" fill="#F2C33E"/>
<path d="M123.44 17.2868L130.946 5.10226L140.128 5.10225L132.77 17.2869L123.44 17.2868Z" fill="#F2C33E"/>
</g>
<path d="M188.673 44.0287C186.536 44.0287 184.604 43.5561 182.878 42.6109C181.173 41.6657 179.827 40.3609 178.84 38.6965C177.875 37.0116 177.392 35.1315 177.392 33.0561C177.392 30.9808 177.875 29.1109 178.84 27.4466C179.827 25.7616 181.183 24.4466 182.909 23.5014C184.635 22.5562 186.566 22.0836 188.703 22.0836C190.306 22.0836 191.786 22.3507 193.142 22.8849C194.498 23.4192 195.649 24.2 196.594 25.2274L195.145 26.676C193.46 24.9705 191.334 24.1178 188.765 24.1178C187.06 24.1178 185.508 24.5082 184.111 25.289C182.714 26.0699 181.614 27.1383 180.813 28.4945C180.032 29.8507 179.642 31.3712 179.642 33.0561C179.642 34.7411 180.032 36.2616 180.813 37.6177C181.614 38.9739 182.714 40.0424 184.111 40.8232C185.508 41.604 187.06 41.9944 188.765 41.9944C191.354 41.9944 193.481 41.1314 195.145 39.4054L196.594 40.854C195.649 41.8814 194.488 42.6725 193.111 43.2273C191.755 43.7616 190.275 44.0287 188.673 44.0287ZM200.994 20.974H203.182V43.8438H200.994V20.974ZM215.898 43.9979C214.336 43.9979 212.928 43.6485 211.675 42.9499C210.422 42.2307 209.435 41.2444 208.716 39.991C207.997 38.7376 207.637 37.3198 207.637 35.7376C207.637 34.1554 207.997 32.7376 208.716 31.4842C209.435 30.2308 210.422 29.2548 211.675 28.5561C212.928 27.8575 214.336 27.5082 215.898 27.5082C217.459 27.5082 218.867 27.8575 220.12 28.5561C221.374 29.2548 222.35 30.2308 223.048 31.4842C223.767 32.7376 224.127 34.1554 224.127 35.7376C224.127 37.3198 223.767 38.7376 223.048 39.991C222.35 41.2444 221.374 42.2307 220.12 42.9499C218.867 43.6485 217.459 43.9979 215.898 43.9979ZM215.898 42.0561C217.048 42.0561 218.076 41.7992 218.98 41.2855C219.904 40.7513 220.624 40.0013 221.137 39.0356C221.651 38.0698 221.908 36.9705 221.908 35.7376C221.908 34.5047 221.651 33.4054 221.137 32.4397C220.624 31.4739 219.904 30.7342 218.98 30.2205C218.076 29.6863 217.048 29.4192 215.898 29.4192C214.747 29.4192 213.709 29.6863 212.785 30.2205C211.88 30.7342 211.161 31.4739 210.627 32.4397C210.113 33.4054 209.857 34.5047 209.857 35.7376C209.857 36.9705 210.113 38.0698 210.627 39.0356C211.161 40.0013 211.88 40.7513 212.785 41.2855C213.709 41.7992 214.747 42.0561 215.898 42.0561ZM243.204 27.6315V43.8438H241.108V40.8849C240.533 41.8712 239.742 42.6417 238.735 43.1965C237.728 43.7307 236.578 43.9979 235.283 43.9979C233.167 43.9979 231.492 43.4122 230.259 42.241C229.047 41.0492 228.441 39.3129 228.441 37.0321V27.6315H230.629V36.8164C230.629 38.5219 231.05 39.8164 231.893 40.6999C232.735 41.5835 233.937 42.0253 235.499 42.0253C237.204 42.0253 238.55 41.5116 239.536 40.4842C240.523 39.4362 241.016 37.9876 241.016 36.1383V27.6315H243.204ZM264.128 20.974V43.8438H262.032V40.6383C261.374 41.7273 260.501 42.5595 259.412 43.1348C258.343 43.7102 257.131 43.9979 255.775 43.9979C254.254 43.9979 252.878 43.6485 251.645 42.9499C250.412 42.2513 249.446 41.2753 248.748 40.0218C248.049 38.7684 247.7 37.3404 247.7 35.7376C247.7 34.1349 248.049 32.7068 248.748 31.4534C249.446 30.2 250.412 29.2342 251.645 28.5561C252.878 27.8575 254.254 27.5082 255.775 27.5082C257.09 27.5082 258.272 27.7856 259.319 28.3404C260.388 28.8746 261.261 29.6657 261.939 30.7137V20.974H264.128ZM255.96 42.0561C257.09 42.0561 258.107 41.7992 259.011 41.2855C259.936 40.7513 260.655 40.0013 261.169 39.0356C261.703 38.0698 261.97 36.9705 261.97 35.7376C261.97 34.5047 261.703 33.4054 261.169 32.4397C260.655 31.4739 259.936 30.7342 259.011 30.2205C258.107 29.6863 257.09 29.4192 255.96 29.4192C254.809 29.4192 253.772 29.6863 252.847 30.2205C251.943 30.7342 251.224 31.4739 250.689 32.4397C250.176 33.4054 249.919 34.5047 249.919 35.7376C249.919 36.9705 250.176 38.0698 250.689 39.0356C251.224 40.0013 251.943 40.7513 252.847 41.2855C253.772 41.7992 254.809 42.0561 255.96 42.0561Z" fill="#F2C33E"/>
<defs>
<clipPath id="clip0_709_11045">
<rect width="86.6684" height="46.9254" fill="white" transform="translate(83.4766 1)"/>
</clipPath>
</defs>
</svg>
