<svg width="28" height="28" viewBox="0 0 28 28" fill="none" xmlns="http://www.w3.org/2000/svg">
<path d="M22.598 5.70562L15.7613 2.66062C14.758 2.21729 13.2413 2.21729 12.238 2.66062L5.4013 5.70562C3.67464 6.47562 3.41797 7.52562 3.41797 8.08562C3.41797 8.64562 3.67464 9.69563 5.4013 10.4656L12.238 13.5106C12.7396 13.7323 13.3696 13.849 13.9996 13.849C14.6296 13.849 15.2596 13.7323 15.7613 13.5106L22.598 10.4656C24.3246 9.69563 24.5813 8.64562 24.5813 8.08562C24.5813 7.52562 24.3363 6.47562 22.598 5.70562Z" fill="white"/>
<path d="M14.0004 19.8826C13.557 19.8826 13.1137 19.7893 12.7054 19.6143L4.84203 16.1143C3.64036 15.5776 2.70703 14.1426 2.70703 12.8243C2.70703 12.3459 3.09203 11.9609 3.57036 11.9609C4.0487 11.9609 4.4337 12.3459 4.4337 12.8243C4.4337 13.4543 4.9587 14.2709 5.54203 14.5276L13.4054 18.0276C13.7787 18.1909 14.2104 18.1909 14.5837 18.0276L22.447 14.5276C23.0304 14.2709 23.5554 13.4659 23.5554 12.8243C23.5554 12.3459 23.9404 11.9609 24.4187 11.9609C24.897 11.9609 25.282 12.3459 25.282 12.8243C25.282 14.1309 24.3487 15.5776 23.147 16.1143L15.2837 19.6143C14.887 19.7893 14.4437 19.8826 14.0004 19.8826Z" fill="white"/>
<path d="M14.0004 25.6717C13.557 25.6717 13.1137 25.5783 12.7054 25.4033L4.84203 21.9033C3.54703 21.3317 2.70703 20.0367 2.70703 18.6133C2.70703 18.135 3.09203 17.75 3.57036 17.75C4.0487 17.75 4.4337 18.135 4.4337 18.6133C4.4337 19.3483 4.86536 20.0133 5.54203 20.3167L13.4054 23.8167C13.7787 23.98 14.2104 23.98 14.5837 23.8167L22.447 20.3167C23.112 20.025 23.5554 19.3483 23.5554 18.6133C23.5554 18.135 23.9404 17.75 24.4187 17.75C24.897 17.75 25.282 18.135 25.282 18.6133C25.282 20.0367 24.442 21.32 23.147 21.9033L15.2837 25.4033C14.887 25.5783 14.4437 25.6717 14.0004 25.6717Z" fill="white"/>
</svg>
